{
  "Routes": [
    {
      "DangerousAcceptAnyServerCertificateValidator": true,
      "DownstreamPathTemplate": "/api/sourcefile/{everything}",
      "DownstreamScheme": "http",
      "SwaggerKey": "query-service",
      "DownstreamHostAndPorts": [
        {
          "Host": "query-service",
          "Port": 80
        }
      ],
      "UpstreamPathTemplate": "/api/sourcefile/{everything}",
      "UpstreamHttpMethod": [
        "GET",
        "POST"
      ]
    },
    {
      "DownstreamPathTemplate": "/api/report/{everything}",
      "DownstreamScheme": "http",
      "SwaggerKey": "query-service",
      "DownstreamHostAndPorts": [
        {
          "Host": "query-service",
          "Port": 80
        }
      ],
      "UpstreamPathTemplate": "/api/report/{everything}",
      "UpstreamHttpMethod": [
        "GET",
        "POST"
      ]
    },
    {
      "DownstreamPathTemplate": "/api/user/{everything}",
      "DownstreamScheme": "http",
      "SwaggerKey": "login-service",
      "DownstreamHostAndPorts": [
        {
          "Host": "login-service",
          "Port": 80
        }
      ],
      "UpstreamPathTemplate": "/api/user/{everything}",
      "UpstreamHttpMethod": [
        "GET",
        "POST"
      ]
    },
    {
      "DownstreamPathTemplate": "/api/file/{everything}",
      "DownstreamScheme": "http",
      "SwaggerKey": "command-service",
      "DownstreamHostAndPorts": [
        {
          "Host": "command-service",
          "Port": 80
        }
      ],
      "UpstreamPathTemplate": "/api/file/{everything}",
      "UpstreamHttpMethod": [
        "GET",
        "POST"
      ]
    },
    {
      "DownstreamPathTemplate": "/api/process/{everything}",
      "DownstreamScheme": "http",
      "SwaggerKey": "command-service",
      "DownstreamHostAndPorts": [
        {
          "Host": "command-service",
          "Port": 80
        }
      ],
      "UpstreamPathTemplate": "/api/process/{everything}",
      "UpstreamHttpMethod": [
        "GET",
        "POST"
      ]
    }
  ],
  "GlobalConfiguration": {
    "BaseUrl": "http://localhost:4200"
  }
}